Intro to dplyr and ggplot2
…
Challenge 2

Calculate the average life expectancy per country. Which has the longest average life expectancy and which has the shortest average life expectancy?

Solution to Challenge 2

#TODO: Your code here

The function group_by() allows us to group by multiple variables. Lets group by year and continent.

gapminder %>%
    group_by(continent,year) %>%
    summarize(mean_gdpPercap=mean(gdpPercap))

## Source: local data frame [60 x 3]
## Groups: continent [?]
## 
##    continent  year mean_gdpPercap
##       <fctr> <int>          <dbl>
## 1     Africa  1952       1252.572
## 2     Africa  1957       1385.236
## 3     Africa  1962       1598.079
## 4     Africa  1967       2050.364
## 5     Africa  1972       2339.616
## 6     Africa  1977       2585.939
## 7     Africa  1982       2481.593
## 8     Africa  1987       2282.669
## 9     Africa  1992       2281.810
## 10    Africa  1997       2378.760
## # ... with 50 more rows

That is already quite powerful, but it gets even better! Youre not limited to defining 1 new variable in summarize().

gapminder %>%
    group_by(continent,year) %>%
    summarize(mean_gdpPercap=mean(gdpPercap),
              sd_gdpPercap=sd(gdpPercap),
              mean_pop=mean(pop),
              sd_pop=sd(pop))

## Source: local data frame [60 x 6]
## Groups: continent [?]
## 
##    continent  year mean_gdpPercap sd_gdpPercap mean_pop   sd_pop
##       <fctr> <int>          <dbl>        <dbl>    <dbl>    <dbl>
## 1     Africa  1952       1252.572     982.9521  4570010  6317450
## 2     Africa  1957       1385.236    1134.5089  5093033  7076042
## 3     Africa  1962       1598.079    1461.8392  5702247  7957545
## 4     Africa  1967       2050.364    2847.7176  6447875  8985505
## 5     Africa  1972       2339.616    3286.8539  7305376 10130833
## 6     Africa  1977       2585.939    4142.3987  8328097 11585184
## 7     Africa  1982       2481.593    3242.6328  9602857 13456243
## 8     Africa  1987       2282.669    2566.5319 11054502 15277484
## 9     Africa  1992       2281.810    2644.0756 12674645 17562719
## 10    Africa  1997       2378.760    2820.7281 14304480 19873013
## # ... with 50 more rows
…
Using mutate()

We can also create new variables prior to (or even after) summarizing information using mutate().

gapminder %>%
    mutate(gdp_billion=gdpPercap*pop/10^9) %>%
    group_by(continent,year) %>%
    summarize(mean_gdpPercap=mean(gdpPercap),
              sd_gdpPercap=sd(gdpPercap),
              mean_pop=mean(pop),
              sd_pop=sd(pop),
              mean_gdp_billion=mean(gdp_billion),
              sd_gdp_billion=sd(gdp_billion))

## Source: local data frame [60 x 8]
## Groups: continent [?]
## 
##    continent  year mean_gdpPercap sd_gdpPercap mean_pop   sd_pop
##       <fctr> <int>          <dbl>        <dbl>    <dbl>    <dbl>
## 1     Africa  1952       1252.572     982.9521  4570010  6317450
## 2     Africa  1957       1385.236    1134.5089  5093033  7076042
## 3     Africa  1962       1598.079    1461.8392  5702247  7957545
## 4     Africa  1967       2050.364    2847.7176  6447875  8985505
## 5     Africa  1972       2339.616    3286.8539  7305376 10130833
## 6     Africa  1977       2585.939    4142.3987  8328097 11585184
## 7     Africa  1982       2481.593    3242.6328  9602857 13456243
## 8     Africa  1987       2282.669    2566.5319 11054502 15277484
## 9     Africa  1992       2281.810    2644.0756 12674645 17562719
## 10    Africa  1997       2378.760    2820.7281 14304480 19873013
## # ... with 50 more rows, and 2 more variables: mean_gdp_billion <dbl>,
## #   sd_gdp_billion <dbl>
…
When creating new variables, we can hook this with a logical condition. A simple combination of mutate() and ifelse() facilitates filtering right where it is needed: in the moment of creating something new. This easy-to-read statement is a fast and powerful way of discarding certain data (even though the overall dimension of the data frame will not change) or for updating values depending on this given condition.

## keeping all data but "filtering" after a certain condition
# calculate GDP only for people with a life expectation above 25
gapminder %>%
    mutate(gdp_billion = ifelse(lifeExp > 25, gdpPercap * pop / 10^9, NA)) %>%
    group_by(continent, year) %>%
    summarize(mean_gdpPercap = mean(gdpPercap),
              sd_gdpPercap = sd(gdpPercap),
              mean_pop = mean(pop),
              sd_pop = sd(pop),
              mean_gdp_billion = mean(gdp_billion),
              sd_gdp_billion = sd(gdp_billion))

## Source: local data frame [60 x 8]
## Groups: continent [?]
## 
##    continent  year mean_gdpPercap sd_gdpPercap mean_pop   sd_pop
##       <fctr> <int>          <dbl>        <dbl>    <dbl>    <dbl>
## 1     Africa  1952       1252.572     982.9521  4570010  6317450
## 2     Africa  1957       1385.236    1134.5089  5093033  7076042
## 3     Africa  1962       1598.079    1461.8392  5702247  7957545
## 4     Africa  1967       2050.364    2847.7176  6447875  8985505
## 5     Africa  1972       2339.616    3286.8539  7305376 10130833
## 6     Africa  1977       2585.939    4142.3987  8328097 11585184
## 7     Africa  1982       2481.593    3242.6328  9602857 13456243
## 8     Africa  1987       2282.669    2566.5319 11054502 15277484
## 9     Africa  1992       2281.810    2644.0756 12674645 17562719
## 10    Africa  1997       2378.760    2820.7281 14304480 19873013
## # ... with 50 more rows, and 2 more variables: mean_gdp_billion <dbl>,
## #   sd_gdp_billion <dbl>

## updating only if certain condition is fullfilled
# for life expectations above 40 years, the gpd to be expected in the future is scaled
gapminder %>%
    mutate(gdp_futureExpectation = ifelse(lifeExp > 40, gdpPercap * 1.5, gdpPercap)) %>%
    group_by(continent, year) %>%
    summarize(mean_gdpPercap = mean(gdpPercap),
              mean_gdpPercap_expected = mean(gdp_futureExpectation))

## Source: local data frame [60 x 4]
## Groups: continent [?]
## 
##    continent  year mean_gdpPercap mean_gdpPercap_expected
##       <fctr> <int>          <dbl>                   <dbl>
## 1     Africa  1952       1252.572                1577.785
## 2     Africa  1957       1385.236                1802.729
## 3     Africa  1962       1598.079                2226.807
## 4     Africa  1967       2050.364                2953.474
## 5     Africa  1972       2339.616                3415.900
## 6     Africa  1977       2585.939                3829.661
## 7     Africa  1982       2481.593                3673.735
## 8     Africa  1987       2282.669                3400.636
## 9     Africa  1992       2281.810                3396.439
## 10    Africa  1997       2378.760                3556.941
## # ... with 50 more rows
…
